…
datos

El paquete no incluye datos, sino que funciona como motor de búsqueda y descarga desde un repositorio alternativo. La idea detrás de ello es que funcione de modo indpendiente, que ésta pudiera ser aumentada o modificada sin efectos directos sobre el paquete. En una próxima publicación intetnaré avanzar sobre la documentación de este repositorio y un proceo de chequeo de información.

La principal fuente de información es el siempre útil Atlas Electoral de Andy Tow. Sitio que, además de ser la fuente de tabulados electorales más completa que existe en Argentina, disponibiliza las bases con los datos desagregados publicados por los escrutinios provisorios desde el año 2003 en adelante.

El primer paso de lo acá compartido fue el procesamiento de esas bases de datos y el armado de un repositorio propio que me facilitara el trabajo de llamado de elecciones. En resumen: transformamos archivos .mdb (formato para tablas relacionles de Microsoft Acces) en sqlite para cada año electoral e hicimos consultas a esas basese de datos para obtener un archivo .csv para cada elección con una estrcutura así: distrito_categoria_turno_año.csv.

Solo para las elecciones del proceso electoral de 2019 trabajamos con datos compartidos por pmoracho en github. Algo más de detalle del estado actual de todo esto esta disponible en el repositorio PolAr_Data.

Al día de hoy el repositorio cuenta con 425 archvios de elecciones para las catgorías a Presidente, Diputades y Senadores Nacionales, para elecciones generales, primarias (P.A.S.O.) y balotaje presidencial.

Con show_available_elections() accedemos a un índice con la información disponible que podemos descargar:

## # A tibble: 425 x 5
##    district category round  year  NOMBRE   
##    <chr>    <chr>    <chr>  <chr> <chr>    
##  1 arg      presi    balota 2015  ARGENTINA
##  2 arg      presi    gral   2003  ARGENTINA
##  3 arg      presi    gral   2007  ARGENTINA
##  4 arg      presi    gral   2011  ARGENTINA
##  5 arg      presi    gral   2015  ARGENTINA
##  6 arg      presi    gral   2019  ARGENTINA
##  7 arg      presi    paso   2011  ARGENTINA
##  8 arg      presi    paso   2015  ARGENTINA
##  9 arg      presi    paso   2019  ARGENTINA
## 10 caba     dip      gral   2005  CABA     
## # ... with 415 more rows

Tomando los parámetros de la tabla anterior con el siguiente comando podemos completar los campos obligatorios para obtener los datos, en este caso de la elección general para presidente de 2019.

arg19 <- get_election_data(district = "arg",
                  category = "presi",
                  round = "gral", 
                  year = 2019)

arg19

## # A tibble: 192 x 8
## # Groups:   codprov [24]
##    category round  year codprov name_prov    electores listas    votos
##    <chr>    <chr> <dbl> <chr>   <chr>            <dbl> <chr>     <dbl>
##  1 presi    gral   2019 01      CABA                 0 00024    128795
##  2 presi    gral   2019 01      CABA                 0 00036     58040
##  3 presi    gral   2019 01      CABA                 0 00037    707158
##  4 presi    gral   2019 01      CABA                 0 00039     13559
##  5 presi    gral   2019 01      CABA                 0 00050   1039750
##  6 presi    gral   2019 01      CABA                 0 00108     37404
##  7 presi    gral   2019 01      CABA                 0 blancos   30542
##  8 presi    gral   2019 01      CABA                 0 nulos         0
##  9 presi    gral   2019 02      BUENOS AIRES         0 00024    610009
## 10 presi    gral   2019 02      BUENOS AIRES         0 00036    260597
## # ... with 182 more rows
…
